…
Note how read csv looks at the data type of each column.

#### Inspecting data frames

``` r
# To view whole dataset
print(data,100)
```

    ## # A tibble: 299 × 26
    ##    Sample.ID     drawDate Covid.ID     Score sex     age race    bmi patientType
    ##    <chr>            <dbl> <chr>        <dbl> <chr> <dbl> <chr> <dbl> <chr>      
    ##  1 SWB343927719     43978 Covid1366599    NA male     54 whit…  69.0 SARS-COV-2…
    ##  2 SWB125388248     43971 Covid1395204    NA male     66 nati…  34.4 SARS-COV-2…
    ##  3 SWB1057697917    43972 Covid1395204    NA male     66 nati…  34.4 SARS-COV-2…
    ##  4 SWB386069501     43940 Covid1425716    NA male     67 whit…  25.7 SARS-COV-2…
    ##  5 SWB827655421     43943 Covid1425716    NA male     67 whit…  25.7 SARS-COV-2…
    ##  6 SWB200026065     43978 Covid1458219    NA fema…    37 whit…  28.4 SARS-COV-2…
    ##  7 SWB258824496     43940 Covid1472094    NA fema…    65 whit…  29.9 SARS-COV-2…
    ##  8 SWB733482852     43939 Covid1490037    NA fema…    94 whit…  28.0 SARS-COV-2…
    ##  9 SWB1084971930    43978 Covid1550447    NA male     79 decl…  25.6 SARS-COV-2…
    ## 10 SWB1078357262    43971 Covid1584168    NA male     75 whit…  23.3 SARS-COV-2…
    ##    HighestCare Ever.On.Ventilat… Preexisting.Hyp… eventId admitDate deceasedDate
    ##    <chr>       <chr>             <chr>            <chr>       <dbl>        <dbl>
    ##  1 Neg         N                 Y                ce1518…     43976           NA
    ##  2 Neg         N                 <NA>             ce1326…     43971           NA
    ##  3 Neg         N                 <NA>             ce1054…     43971           NA
    ##  4 Neg         N                 <NA>             ce1783…     43927           NA
    ##  5 Neg         N                 <NA>             ce1838…     43927           NA
    ##  6 Neg         N                 <NA>             ce1761…     43977           NA
    ##  7 Neg         N                 <NA>             ce1677…     43937           NA
    ##  8 Neg         N                 <NA>             ce1573…     43937           NA
    ##  9 Neg         N                 <NA>             ce1538…     43976           NA
    ## 10 Neg         N                 <NA>             ce1881…     43969           NA
    ## # … with 289 more rows, and 11 more variables: covidId <chr>, severity <chr>, drawTime <dbl>,
    ## #   CBC.White.Blood.Cell.Count <dbl>, CBC.Absolute.Monocytes <dbl>, CBC.Absolute.Neutrophils <dbl>,
    ## #   CBC.Absolute.Lymphocytes <dbl>, FracCD45.Neutrophil <dbl>, FracCD45.T.cell.CD4 <dbl>,
    ## #   FracCD45.DC <dbl>, T.cell.CD8.HLA_DRp__of.CD8 <dbl>
…
``` r
head(data, 100)
```

    ## # A tibble: 100 × 26
    ##    Sample.ID     drawDate Covid.ID     Score sex     age race    bmi patientType
    ##    <chr>            <dbl> <chr>        <dbl> <chr> <dbl> <chr> <dbl> <chr>      
    ##  1 SWB343927719     43978 Covid1366599    NA male     54 whit…  69.0 SARS-COV-2…
    ##  2 SWB125388248     43971 Covid1395204    NA male     66 nati…  34.4 SARS-COV-2…
    ##  3 SWB1057697917    43972 Covid1395204    NA male     66 nati…  34.4 SARS-COV-2…
    ##  4 SWB386069501     43940 Covid1425716    NA male     67 whit…  25.7 SARS-COV-2…
    ##  5 SWB827655421     43943 Covid1425716    NA male     67 whit…  25.7 SARS-COV-2…
    ##  6 SWB200026065     43978 Covid1458219    NA fema…    37 whit…  28.4 SARS-COV-2…
    ##  7 SWB258824496     43940 Covid1472094    NA fema…    65 whit…  29.9 SARS-COV-2…
    ##  8 SWB733482852     43939 Covid1490037    NA fema…    94 whit…  28.0 SARS-COV-2…
    ##  9 SWB1084971930    43978 Covid1550447    NA male     79 decl…  25.6 SARS-COV-2…
    ## 10 SWB1078357262    43971 Covid1584168    NA male     75 whit…  23.3 SARS-COV-2…
    ## # … with 90 more rows, and 17 more variables: HighestCare <chr>,
    ## #   Ever.On.Ventilator <chr>, Preexisting.Hypertension <chr>, eventId <chr>,
    ## #   admitDate <dbl>, deceasedDate <dbl>, covidId <chr>, severity <chr>,
    ## #   drawTime <dbl>, CBC.White.Blood.Cell.Count <dbl>,
    ## #   CBC.Absolute.Monocytes <dbl>, CBC.Absolute.Neutrophils <dbl>,
    ## #   CBC.Absolute.Lymphocytes <dbl>, FracCD45.Neutrophil <dbl>,
    ## #   FracCD45.T.cell.CD4 <dbl>, FracCD45.DC <dbl>, …
…
    ## # A tibble: 1 × 1
    ##   Sample.ID   
    ##   <chr>       
    ## 1 SWB343927719

``` r
# You can save this by assigning it to a variable
data_subset <- data[1,1]

# get only 5th columns
data[,5]
```

    ## # A tibble: 299 × 1
    ##    sex   
    ##    <chr> 
    ##  1 male  
    ##  2 male  
    ##  3 male  
    ##  4 male  
    ##  5 male  
    ##  6 female
    ##  7 female
    ##  8 female
    ##  9 male  
    ## 10 male  
    ## # … with 289 more rows
…
    ## # A tibble: 2 × 4
    ##   Covid.ID     Score sex     age
    ##   <chr>        <dbl> <chr> <dbl>
    ## 1 Covid1366599    NA male     54
    ## 2 Covid1395204    NA male     66

``` r
# You can also exclude columns using the minus sign
data[,-1]
```

    ## # A tibble: 299 × 25
    ##    drawDate Covid.ID     Score sex      age race     bmi patientType HighestCare
    ##       <dbl> <chr>        <dbl> <chr>  <dbl> <chr>  <dbl> <chr>       <chr>      
    ##  1    43978 Covid1366599    NA male      54 white…  69.0 SARS-COV-2… Neg        
    ##  2    43971 Covid1395204    NA male      66 nativ…  34.4 SARS-COV-2… Neg        
    ##  3    43972 Covid1395204    NA male      66 nativ…  34.4 SARS-COV-2… Neg        
    ##  4    43940 Covid1425716    NA male      67 white…  25.7 SARS-COV-2… Neg        
    ##  5    43943 Covid1425716    NA male      67 white…  25.7 SARS-COV-2… Neg        
    ##  6    43978 Covid1458219    NA female    37 white…  28.4 SARS-COV-2… Neg        
    ##  7    43940 Covid1472094    NA female    65 white…  29.9 SARS-COV-2… Neg        
    ##  8    43939 Covid1490037    NA female    94 white…  28.0 SARS-COV-2… Neg        
    ##  9    43978 Covid1550447    NA male      79 decli…  25.6 SARS-COV-2… Neg        
    ## 10    43971 Covid1584168    NA male      75 white…  23.3 SARS-COV-2… Neg        
    ## # … with 289 more rows, and 16 more variables: Ever.On.Ventilator <chr>,
    ## #   Preexisting.Hypertension <chr>, eventId <chr>, admitDate <dbl>,
    ## #   deceasedDate <dbl>, covidId <chr>, severity <chr>, drawTime <dbl>,
    ## #   CBC.White.Blood.Cell.Count <dbl>, CBC.Absolute.Monocytes <dbl>,
    ## #   CBC.Absolute.Neutrophils <dbl>, CBC.Absolute.Lymphocytes <dbl>,
    ## #   FracCD45.Neutrophil <dbl>, FracCD45.T.cell.CD4 <dbl>, FracCD45.DC <dbl>,
    ## #   T.cell.CD8.HLA_DRp__of.CD8 <dbl>
…
``` r
# You can also subset by using the name of the column in quotation marks
data[, "Sample.ID"]
```

    ## # A tibble: 299 × 1
    ##    Sample.ID    
    ##    <chr>        
    ##  1 SWB343927719 
    ##  2 SWB125388248 
    ##  3 SWB1057697917
    ##  4 SWB386069501 
    ##  5 SWB827655421 
    ##  6 SWB200026065 
    ##  7 SWB258824496 
    ##  8 SWB733482852 
    ##  9 SWB1084971930
    ## 10 SWB1078357262
    ## # … with 289 more rows
…
#### Selecting columns and filtering rows

``` r
select(data2, Sample.ID, age, bmi) # put the name of the df first, followed by the columns names
```

    ## # A tibble: 299 × 3
    ##    Sample.ID       age   bmi
    ##    <chr>         <dbl> <dbl>
    ##  1 SWB343927719     54  69.0
    ##  2 SWB125388248     66  34.4
    ##  3 SWB1057697917    66  34.4
    ##  4 SWB386069501     67  25.7
    ##  5 SWB827655421     67  25.7
    ##  6 SWB200026065     37  28.4
    ##  7 SWB258824496     65  29.9
    ##  8 SWB733482852     94  28.0
    ##  9 SWB1084971930    79  25.6
    ## 10 SWB1078357262    75  23.3
    ## # … with 289 more rows

``` r
# use the minus "-" symbol to select all except certain columns
select(data2, -sex, -race)
```

    ## # A tibble: 299 × 24
    ##    Sample.ID     drawDate Covid.ID     Score   age   bmi patientType HighestCare
    ##    <chr>            <dbl> <chr>        <dbl> <dbl> <dbl> <chr>       <chr>      
    ##  1 SWB343927719     43978 Covid1366599    NA    54  69.0 SARS-COV-2… Negative   
    ##  2 SWB125388248     43971 Covid1395204    NA    66  34.4 SARS-COV-2… Negative   
    ##  3 SWB1057697917    43972 Covid1395204    NA    66  34.4 SARS-COV-2… Negative   
    ##  4 SWB386069501     43940 Covid1425716    NA    67  25.7 SARS-COV-2… Negative   
    ##  5 SWB827655421     43943 Covid1425716    NA    67  25.7 SARS-COV-2… Negative   
    ##  6 SWB200026065     43978 Covid1458219    NA    37  28.4 SARS-COV-2… Negative   
    ##  7 SWB258824496     43940 Covid1472094    NA    65  29.9 SARS-COV-2… Negative   
    ##  8 SWB733482852     43939 Covid1490037    NA    94  28.0 SARS-COV-2… Negative   
    ##  9 SWB1084971930    43978 Covid1550447    NA    79  25.6 SARS-COV-2… Negative   
    ## 10 SWB1078357262    43971 Covid1584168    NA    75  23.3 SARS-COV-2… Negative   
    ## # … with 289 more rows, and 16 more variables: Ever.On.Ventilator <chr>,
    ## #   Preexisting.Hypertension <chr>, eventId <chr>, admitDate <dbl>,
    ## #   deceasedDate <dbl>, covidId <chr>, severity <chr>, drawTime <dbl>,
    ## #   CBC.White.Blood.Cell.Count <dbl>, CBC.Absolute.Monocytes <dbl>,
    ## #   CBC.Absolute.Neutrophils <dbl>, CBC.Absolute.Lymphocytes <dbl>,
    ## #   FracCD45.Neutrophil <dbl>, FracCD45.T.cell.CD4 <dbl>, FracCD45.DC <dbl>,
    ## #   T.cell.CD8.HLA_DRp__of.CD8 <dbl>
…
``` r
filter(data2, age <= 50)
```

    ## # A tibble: 56 × 26
    ##    Sample.ID     drawDate Covid.ID     Score sex     age race    bmi patientType
    ##    <chr>            <dbl> <chr>        <dbl> <chr> <dbl> <chr> <dbl> <chr>      
    ##  1 SWB200026065     43978 Covid1458219    NA fema…    37 whit…  28.4 SARS-COV-2…
    ##  2 SWB302673469     43939 Covid1601623    NA fema…    30 whit…  31.8 SARS-COV-2…
    ##  3 SWB435038108     43971 Covid1945628    NA fema…    48 whit…  30.2 SARS-COV-2…
    ##  4 SWB162851435     43972 Covid1945628    NA fema…    48 whit…  30.2 SARS-COV-2…
    ##  5 SWB368283451     43971 Covid1240633    NA fema…    43 whit…  25.1 SARS-COV-2…
    ##  6 SWB1006370538    43967 Covid1299092     2 fema…    27 othe…  NA   SARS-COV-2…
    ##  7 SWB130003945     43962 Covid1414426     2 male     28 asian  NA   SARS-COV-2…
    ##  8 SWB1007811075    43951 Covid1701495     2 fema…    41 othe…  54.1 SARS-COV-2…
    ##  9 SWB508500322     43942 Covid1889889     2 fema…    28 blac…  22.5 SARS-COV-2…
    ## 10 SWB104438684     43948 Covid1006658     3 male     34 whit…  33.3 SARS-COV-2…
    ## # … with 46 more rows, and 17 more variables: HighestCare <chr>,
    ## #   Ever.On.Ventilator <chr>, Preexisting.Hypertension <chr>, eventId <chr>,
    ## #   admitDate <dbl>, deceasedDate <dbl>, covidId <chr>, severity <chr>,
    ## #   drawTime <dbl>, CBC.White.Blood.Cell.Count <dbl>,
    ## #   CBC.Absolute.Monocytes <dbl>, CBC.Absolute.Neutrophils <dbl>,
    ## #   CBC.Absolute.Lymphocytes <dbl>, FracCD45.Neutrophil <dbl>,
    ## #   FracCD45.T.cell.CD4 <dbl>, FracCD45.DC <dbl>, …
…
# Nest the functions
data2_subset <- select(filter(data2, bmi < 30), Sample.ID, age, severity)

# nesting  can get hard to read

# Use the pipe operator %>% 
# Pipes in R look like %>% and are made available via the magrittr package, installed automatically with dplyr. If you use RStudio, you can type the pipe with Ctrl + Shift + M if you have a PC or Cmd + Shift + M if you have a Mac.

data2 %>%
  filter(bmi < 30) %>% 
  select(Sample.ID, age, severity)
```

    ## # A tibble: 146 × 3
    ##    Sample.ID       age severity
    ##    <chr>         <dbl> <chr>   
    ##  1 SWB386069501     67 Neg     
    ##  2 SWB827655421     67 Neg     
    ##  3 SWB200026065     37 Neg     
    ##  4 SWB258824496     65 Neg     
    ##  5 SWB733482852     94 Neg     
    ##  6 SWB1084971930    79 Neg     
    ##  7 SWB1078357262    75 Neg     
    ##  8 SWB555276334     75 Neg     
    ##  9 SWB1035736641    88 Neg     
    ## 10 SWB258122016     88 Neg     
    ## # … with 136 more rows

``` r
# the pipe passes the data from one operation to another and goes step by step, it is like saying the word "then" at each pipe 


# We can create a new object with this filtered data
data2_sml <- data2 %>%
  filter(bmi < 30) %>% 
  select(Sample.ID, age, severity)

data2_sml
```

    ## # A tibble: 146 × 3
    ##    Sample.ID       age severity
    ##    <chr>         <dbl> <chr>   
    ##  1 SWB386069501     67 Neg     
    ##  2 SWB827655421     67 Neg     
    ##  3 SWB200026065     37 Neg     
    ##  4 SWB258824496     65 Neg     
    ##  5 SWB733482852     94 Neg     
    ##  6 SWB1084971930    79 Neg     
    ##  7 SWB1078357262    75 Neg     
    ##  8 SWB555276334     75 Neg     
    ##  9 SWB1035736641    88 Neg     
    ## 10 SWB258122016     88 Neg     
    ## # … with 136 more rows
…
#### Mutate

It is often the case that you want to perform some manipulation on an
existing column and make a new column. You can do this using the
function `mutate`

``` r
# lets create a new column where we calculate a persons age in months
data2 %>%
  mutate(age_months = age*12)
```

    ## # A tibble: 299 × 27
    ##    Sample.ID     drawDate Covid.ID     Score sex     age race    bmi patientType
    ##    <chr>            <dbl> <chr>        <dbl> <chr> <dbl> <chr> <dbl> <chr>      
    ##  1 SWB343927719     43978 Covid1366599    NA male     54 whit…  69.0 SARS-COV-2…
    ##  2 SWB125388248     43971 Covid1395204    NA male     66 nati…  34.4 SARS-COV-2…
    ##  3 SWB1057697917    43972 Covid1395204    NA male     66 nati…  34.4 SARS-COV-2…
    ##  4 SWB386069501     43940 Covid1425716    NA male     67 whit…  25.7 SARS-COV-2…
    ##  5 SWB827655421     43943 Covid1425716    NA male     67 whit…  25.7 SARS-COV-2…
    ##  6 SWB200026065     43978 Covid1458219    NA fema…    37 whit…  28.4 SARS-COV-2…
    ##  7 SWB258824496     43940 Covid1472094    NA fema…    65 whit…  29.9 SARS-COV-2…
    ##  8 SWB733482852     43939 Covid1490037    NA fema…    94 whit…  28.0 SARS-COV-2…
    ##  9 SWB1084971930    43978 Covid1550447    NA male     79 decl…  25.6 SARS-COV-2…
    ## 10 SWB1078357262    43971 Covid1584168    NA male     75 whit…  23.3 SARS-COV-2…
    ## # … with 289 more rows, and 18 more variables: HighestCare <chr>,
    ## #   Ever.On.Ventilator <chr>, Preexisting.Hypertension <chr>, eventId <chr>,
    ## #   admitDate <dbl>, deceasedDate <dbl>, covidId <chr>, severity <chr>,
    ## #   drawTime <dbl>, CBC.White.Blood.Cell.Count <dbl>,
    ## #   CBC.Absolute.Monocytes <dbl>, CBC.Absolute.Neutrophils <dbl>,
    ## #   CBC.Absolute.Lymphocytes <dbl>, FracCD45.Neutrophil <dbl>,
    ## #   FracCD45.T.cell.CD4 <dbl>, FracCD45.DC <dbl>, …

``` r
# Can also do multiple mutates one after the other
data2 %>% 
  mutate(age_months = age*12,
         age_d = age_months*30)
```

    ## # A tibble: 299 × 28
    ##    Sample.ID     drawDate Covid.ID     Score sex     age race    bmi patientType
    ##    <chr>            <dbl> <chr>        <dbl> <chr> <dbl> <chr> <dbl> <chr>      
    ##  1 SWB343927719     43978 Covid1366599    NA male     54 whit…  69.0 SARS-COV-2…
    ##  2 SWB125388248     43971 Covid1395204    NA male     66 nati…  34.4 SARS-COV-2…
    ##  3 SWB1057697917    43972 Covid1395204    NA male     66 nati…  34.4 SARS-COV-2…
    ##  4 SWB386069501     43940 Covid1425716    NA male     67 whit…  25.7 SARS-COV-2…
    ##  5 SWB827655421     43943 Covid1425716    NA male     67 whit…  25.7 SARS-COV-2…
    ##  6 SWB200026065     43978 Covid1458219    NA fema…    37 whit…  28.4 SARS-COV-2…
    ##  7 SWB258824496     43940 Covid1472094    NA fema…    65 whit…  29.9 SARS-COV-2…
    ##  8 SWB733482852     43939 Covid1490037    NA fema…    94 whit…  28.0 SARS-COV-2…
    ##  9 SWB1084971930    43978 Covid1550447    NA male     79 decl…  25.6 SARS-COV-2…
    ## 10 SWB1078357262    43971 Covid1584168    NA male     75 whit…  23.3 SARS-COV-2…
    ## # … with 289 more rows, and 19 more variables: HighestCare <chr>,
    ## #   Ever.On.Ventilator <chr>, Preexisting.Hypertension <chr>, eventId <chr>,
    ## #   admitDate <dbl>, deceasedDate <dbl>, covidId <chr>, severity <chr>,
    ## #   drawTime <dbl>, CBC.White.Blood.Cell.Count <dbl>,
    ## #   CBC.Absolute.Monocytes <dbl>, CBC.Absolute.Neutrophils <dbl>,
    ## #   CBC.Absolute.Lymphocytes <dbl>, FracCD45.Neutrophil <dbl>,
    ## #   FracCD45.T.cell.CD4 <dbl>, FracCD45.DC <dbl>, …
…
